<?xml version="1.0" encoding="utf-8"?>
<!-- Generator: Adobe Illustrator 19.1.0, SVG Export Plug-In . SVG Version: 6.00 Build 0)  -->
<svg version="1.1" xmlns="http://www.w3.org/2000/svg" xmlns:xlink="http://www.w3.org/1999/xlink" x="0px" y="0px"
	 viewBox="0 0 50 50" style="enable-background:new 0 0 50 50;" xml:space="preserve">
<style type="text/css">
	.st0{fill:#FFFFFF;}
	.st1{display:none;}
	.st2{display:inline;}
</style>
<g id="Ebene_1">
	<g>
		<path class="st0" d="M42,0.3H8.1C5.9,0.3,4,2.2,4,4.4v41c0,2.3,1.8,4.1,4.1,4.1H42c2.3,0,4.1-1.8,4.1-4.1v-41
			C46.1,2.2,44.3,0.3,42,0.3 M42,38.3H8.1V4.4H42V38.3z"/>
		<path class="st0" d="M19.8,15.7c1.6,0,2.9-1.3,2.9-2.9s-1.3-2.9-2.9-2.9c-1.6,0-2.9,1.3-2.9,2.9S18.2,15.7,19.8,15.7"/>
		<path class="st0" d="M30.4,15.7c1.6,0,2.9-1.3,2.9-2.9S32,9.9,30.4,9.9c-1.6,0-2.9,1.3-2.9,2.9S28.8,15.7,30.4,15.7"/>
		<polygon class="st0" points="17.4,28.8 32.7,28.8 33.9,28.8 35.1,28.8 35.1,21.8 32.7,21.8 32.7,26.4 17.4,26.4 17.4,21.8 
			15,21.8 15,33.4 17.4,33.4 		"/>
	</g>
</g>
<g id="Ebene_2" class="st1">
	<g class="st2">
		<path class="st0" d="M28.5,9c-5.7,0-10.4,4.7-10.4,10.4c0,5.7,4.7,10.4,10.4,10.4s10.4-4.7,10.4-10.4C38.9,13.7,34.3,9,28.5,9
			 M34.8,17.6h-8.6v1.8h8.6V23h-8.6v3.2h-3.6V23v-3.6v-1.8V14h3.6h8.6V17.6z"/>
		<path class="st0" d="M42.4,0.6H7.9c-4,0-7.2,3.2-7.2,7.2v34.6c0,4,3.2,7.2,7.2,7.2h34.6c4,0,7.2-3.2,7.2-7.2V7.8
			C49.6,3.8,46.4,0.6,42.4,0.6 M28.2,34.7c-2.8,0-5.3-0.8-7.5-2.1l-9.5,9.5c-0.7,0.7-1.6,1.1-2.5,1.1c-0.9,0-1.8-0.4-2.5-1.1
			c-1.4-1.4-1.4-3.7,0-5.1l9.5-9.5c-1.3-2.2-2.1-4.8-2.1-7.5c0-8.1,6.6-14.7,14.7-14.7c8.1,0,14.7,6.6,14.7,14.7
			C42.9,28.1,36.3,34.7,28.2,34.7"/>
	</g>
</g>
<g id="Ebene_3" class="st1">
	<g class="st2">
		<path class="st0" d="M44.1,22.3V36c0,1.7-1.4,3-3,3h-0.3c0.9,0.9,1.5,2.1,1.5,3.5c3.1-0.6,5.4-3.3,5.4-6.5V22.3
			c-0.6,0.2-1.2,0.3-1.8,0.3C45.3,22.6,44.7,22.5,44.1,22.3"/>
		<path class="st0" d="M17.8,39h-0.5c-1.7,0-3-1.4-3-3v-5.5c-0.6,0.2-1.2,0.3-1.8,0.3c-0.6,0-1.2-0.1-1.8-0.3V36
			c0,3.7,3,6.6,6.6,6.6h0.5c-0.2-0.6-0.3-1.2-0.3-1.8C17.5,40.2,17.6,39.6,17.8,39"/>
		<path class="st0" d="M27.4,39c0.2,0.6,0.3,1.2,0.3,1.8c0,0.6-0.1,1.2-0.3,1.8h4.7c0-1.4,0.6-2.7,1.5-3.6H27.4z"/>
		<path class="st0" d="M14.3,21v-8.8c0-1.7,1.4-3,3-3h2C19.1,8.6,19,8,19,7.4s0.1-1.2,0.3-1.8h-2c-3.7,0-6.6,3-6.6,6.6V21
			c0.6-0.2,1.2-0.3,1.8-0.3C13.1,20.6,13.7,20.7,14.3,21"/>
		<path class="st0" d="M28.9,9.2h12.2c1.7,0,3,1.4,3,3v0.5c0.6-0.2,1.2-0.3,1.8-0.3c0.6,0,1.2,0.1,1.8,0.3v-0.5c0-3.7-3-6.6-6.6-6.6
			H28.9c0.2,0.6,0.3,1.2,0.3,1.8C29.2,8,29.1,8.6,28.9,9.2"/>
		<path class="st0" d="M27.4,7.4c0,1.8-1.5,3.3-3.3,3.3c-1.8,0-3.3-1.5-3.3-3.3c0-1.8,1.5-3.3,3.3-3.3C25.9,4,27.4,5.5,27.4,7.4"/>
		<path class="st0" d="M49.3,17.5c0,1.8-1.5,3.3-3.3,3.3c-1.8,0-3.3-1.5-3.3-3.3c0-1.8,1.5-3.3,3.3-3.3
			C47.8,14.2,49.3,15.7,49.3,17.5"/>
		<path class="st0" d="M7.8,34.2c0,1.8-1.5,3.3-3.3,3.3c-1.8,0-3.3-1.5-3.3-3.3c0-1.8,1.5-3.3,3.3-3.3C6.4,30.9,7.8,32.4,7.8,34.2"
			/>
		<path class="st0" d="M15.8,25.8c0,1.8-1.5,3.3-3.3,3.3c-1.8,0-3.3-1.5-3.3-3.3c0-1.8,1.5-3.3,3.3-3.3
			C14.3,22.4,15.8,23.9,15.8,25.8"/>
		<path class="st0" d="M26.7,30c0,1.8-1.5,3.3-3.3,3.3c-1.8,0-3.3-1.5-3.3-3.3c0-1.8,1.5-3.3,3.3-3.3C25.3,26.7,26.7,28.1,26.7,30"
			/>
		<path class="st0" d="M36.3,30c0,1.8-1.5,3.3-3.3,3.3c-1.8,0-3.3-1.5-3.3-3.3c0-1.8,1.5-3.3,3.3-3.3C34.8,26.7,36.3,28.1,36.3,30"
			/>
		<path class="st0" d="M33,21.2c0,1.8-1.5,3.3-3.3,3.3c-1.8,0-3.3-1.5-3.3-3.3c0-1.8,1.5-3.3,3.3-3.3C31.5,17.8,33,19.3,33,21.2"/>
		<path class="st0" d="M25.9,40.8c0,1.8-1.5,3.3-3.3,3.3c-1.8,0-3.3-1.5-3.3-3.3c0-1.8,1.5-3.3,3.3-3.3C24.5,37.5,25.9,39,25.9,40.8
			"/>
		<path class="st0" d="M40.5,42.6c0,1.8-1.5,3.3-3.3,3.3c-1.8,0-3.3-1.5-3.3-3.3c0-1.8,1.5-3.3,3.3-3.3C39,39.3,40.5,40.8,40.5,42.6
			"/>
	</g>
</g>
<g id="Ebene_4" class="st1">
	<g class="st2">
		<path class="st0" d="M42.3,15.2v24.7c0,1.1-0.9,2-2,2H2.7c-1.1,0-2-0.9-2-2V15.2c0-1.1,0.9-2,2-2h37.6
			C41.4,13.2,42.3,14.1,42.3,15.2 M47.4,6.2H9.8c-1.1,0-2,0.9-2,2v24.7c0,1.1,0.9,2,2,2h37.6c1.1,0,2-0.9,2-2V8.2
			C49.4,7.1,48.5,6.2,47.4,6.2"/>
	</g>
</g>
</svg>
